565049 520012 452
735044 832524 468
173052 513868 470
934709 180020 525
533368 155696 470
339058 608052 470
60293 192671 383
484524 167127 449
197286 218123 386
542799 702459 509
953345 981243 458
482920 997293 525
873901 567200 525
706264 757611 424
173920 475705 449
464881 63240 449
596897 364145 470
19554 931823 525
365297 519802 470
108460 934512 525
728649 322136 509
822304 613702 509
588056 141867 470
778815 369222 509
78082 278085 443
663986 661229 323
776178 510969 509
508648 474756 426
814195 550190 509
58303 17725 340
860969 222190 525
729494 560596 509
877884 603495 525
59120 791545 509
314776 878886 525
994337 128105 525
323317 889376 525
442999 336944 449
206069 558088 470
509567 335161 449
898747 96309 525
562577 799935 509
908951 263359 525
313548 147719 443
509844 642331 509
854513 1874 525
821617 646924 504
584553 591613 359
420047 93657 449
456010 25098 449
365496 31618 443
682279 846843 525
682117 420085 509
723760 817357 468
802185 950798 525
60851 318454 443
799724 429934 509
197463 308906 443
278392 518022 470
76543 224727 386
858173 355628 525
441891 753163 509
119922 94466 354
500027 323205 449
429612 645549 509
985434 56550 525
407895 695653 509
822300 156952 509
653856 868037 525
228465 887387 525
283508 716332 509
661981 472010 509
303082 883656 525
619224 933802 525
989324 125960 525
976472 319765 525
166009 650572 509
206321 283352 443
376466 536970 470
936735 656922 525
148195 92133 375
84200 79515 320
777141 49166 509
552869 90205 470
846686 990006 507
684891 589539 509
662938 892983 525
780052 582869 509
338885 309763 384
2623 124875 354
154764 856014 525
666119 569599 509
925226 878836 476
243802 791179 509
30697 875623 525
372674 434832 449
893801 112768 525
680043 312204 509
419921 315456 449
865732 566330 525
419520 572837 470
475043 597200 470
445485 67817 449
289120 659432 509
88986 820143 509
728367 399943 509
509276 605195 470
797712 65704 509
224589 207522 386
344164 534532 470
205832 714374 509
929048 567517 525
593969 476964 470
66491 197576 383
52222 86647 351
633995 739679 504
300317 915476 525
195752 120629 383
663013 899999 525
994404 354380 525
41505 999149 525
971889 803522 525
574805 547387 421
972107 682163 525
654588 790992 504
895706 800164 525
169917 381221 443
494617 956441 525
434434 216391 449
468170 112649 449
638308 382284 509
173004 530731 470
416673 711157 509
292163 916653 525
871895 779349 525
884939 574791 525
860869 437633 525
838391 314066 525
636398 808446 504
359624 407441 436
440895 157559 449
339895 307210 384
405709 217841 443
200728 523442 470
113182 56744 354
206626 68925 383
128200 574769 470
813760 487209 509
762403 170753 509
509972 997980 525
633735 685725 442
519959 296760 470
139603 303962 443
141601 698155 509
548665 534734 452
132453 368600 443
230951 406231 441
767217 386925 509
321347 845644 525
241415 494161 449
344309 550633 470
544053 434653 470
407244 365946 436
549635 133065 470
980816 579073 525
847655 1 525
182488 791626 509
19401 539069 470
151049 498272 449
766382 350409 509
590510 348513 470
838587 419459 525
299311 522212 470
979291 124909 525
750454 612066 509
485384 348885 449
678292 91385 509
700024 662407 442
6080 491666 449
8737 211442 383
313928 200174 443
619260 938652 525
964204 59902 525
477525 120341 449
876304 574668 525
358595 702533 509
653116 655237 385
164136 621106 470
349672 526636 470
617417 346125 470
217059 620396 470
767276 817674 468
601412 502873 470
328987 88018 443
858076 669233 525
331226 998975 525
219490 136554 386
847840 297643 525
908025 687319 525
588260 519973 452
650581 145722 509
879272 722460 525
579270 141913 470
177851 653230 509
97265 321846 443
414703 530278 470
379527 761935 509
13998 640868 509
840021 661865 525
233033 256238 381
101288 756363 509
385749 239639 441
332266 596246 470
75735 929290 525
399986 362492 436
382775 330756 441
501484 63617 449
227398 79912 386
126987 372693 443
473864 49799 449
200324 880303 525
594176 694032 509
826076 173085 509
322028 219654 443
330961 588574 470
966933 100802 525
328879 563675 470
725456 487961 509
195414 740497 509
205294 209256 373
108244 693417 509
508114 522970 470
494374 587328 470
510329 26512 449
561511 388210 470
428295 179186 449
359563 288374 441
873336 567675 525
720652 519614 509
499544 719586 509
691412 46916 509
294822 603939 470
474535 449110 444
329124 395915 441
150048 922661 525
50069 48639 296
804231 254819 509
301136 385590 441
511487 690543 509
300091 595069 470
972372 730155 525
610652 647727 509
535941 687675 509
85185 54305 351
54456 85655 351
902892 423155 525
590399 228248 470
490544 77082 449
521061 639518 509
924154 637103 525
954057 329671 525
697728 851908 525
998067 7353 525
293002 839766 525
104394 69065 351
976024 849412 507
319882 361093 441
384126 524326 470
232734 326730 407
466688 830189 509
608965 282016 470
845465 506414 525
688959 806051 504
439224 376556 449
600275 371310 470
39105 82501 351
794790 66106 509
968394 647989 525
295906 249717 407
880137 367300 525
495635 208124 449
