5245 369858 443
432472 450500 400
211154 779300 509
171705 442552 449
68364 326841 443
724241 947906 525
67641 424224 449
847103 847324 282
500429 789969 509
330372 587669 470
402373 709174 509
447397 508082 444
50891 925845 525
182127 463616 449
76318 260217 443
264541 740935 509
192536 599061 470
214365 858607 525
232542 443306 449
67750 810246 509
116282 727672 509
580682 902282 525
305836 509313 449
336836 932523 525
122357 584643 470
210082 578420 470
3106 39679 324
141933 945495 525
98229 676062 509
3462 809643 509
660699 953489 525
429503 960744 525
141847 475944 449
148274 514929 470
865860 884120 432
596526 922884 525
307946 935471 525
334155 477457 449
35086 559557 470
15823 592174 470
511301 874691 525
262301 397140 441
121085 808656 509
522911 579596 452
686633 853546 525
171246 259886 443
30431 468830 449
891940 937941 476
293116 409936 441
892188 993165 507
554776 658229 509
189663 800452 509
227300 876838 525
154524 590356 470
26556 981444 525
428667 934384 525
302878 766924 509
435121 551833 470
920980 963309 507
356977 802204 509
90314 224481 386
294505 968147 525
90413 327410 443
257652 837306 509
50513 574434 470
391581 897937 525
482261 619072 470
428616 529845 470
154198 648934 509
457525 669694 509
281351 693191 509
393059 426553 449
405276 842199 525
537664 803855 509
370827 879302 525
197476 564545 470
37989 235241 443
189784 742834 509
197551 498128 449
62280 593963 470
121441 426306 449
46188 820426 509
261953 406215 441
15446 612540 470
120950 312188 443
367176 615068 470
185899 770652 509
283255 965938 525
110812 631762 509
140857 635404 509
102125 641125 509
313801 635218 509
179356 821147 509
131189 168136 383
282657 637699 509
120574 853569 525
15280 376815 443
419777 769926 509
343803 413185 449
654057 793424 504
408831 719000 509
478426 540719 470
242503 246985 337
98823 400849 443
552078 769750 509
428771 531495 470
129799 859441 525
747699 772964 468
129908 744235 509
68056 860494 525
273880 943261 525
699645 869688 525
476989 933398 525
39525 998733 525
390386 972219 525
228921 918790 525
551759 605262 434
263963 614670 470
117048 435593 449
290454 790446 509
128026 176148 383
126681 510180 449
345400 988514 525
50572 477142 449
16944 991675 525
28036 849856 525
86057 243057 443
241460 717369 509
674584 932350 525
48266 71023 340
11270 37679 324
8970 180687 383
418021 625081 470
341879 794261 509
936614 957376 507
332440 400659 441
681875 805496 504
61490 600081 470
373637 524968 470
261768 323303 407
294108 826856 509
409176 809386 509
413961 691666 509
112632 772017 509
81500 567666 470
255305 642158 509
46355 72387 340
364450 927321 525
676689 871153 525
709601 740382 424
25441 824090 509
123964 869048 525
476468 878412 525
49826 122170 354
164573 730714 509
217661 536620 470
106114 214357 383
529274 705667 509
594066 711433 509
926351 981510 507
451597 791991 509
460524 890393 525
353920 66521 443
234827 949110 525
615073 805385 509
805423 857966 525
37306 854905 525
108536 984435 525
446481 839720 525
657514 848761 525
352748 471712 449
71703 847750 525
207833 532891 470
385661 772765 509
755757 769298 468
273214 619082 470
554585 721712 509
229417 564656 470
429414 724773 509
343210 790388 509
146981 782676 509
238133 934429 525
65774 922136 525
332725 783011 509
142267 941359 525
198001 413774 449
46241 983767 525
533492 845265 525
76535 460987 449
573592 770950 509
581403 814342 509
588819 659547 509
884865 19616 525
153173 664137 509
414959 570155 470
256046 500037 449
177741 791504 509
217242 423438 449
757730 850509 525
794504 879236 525
625727 695827 509
391905 997907 525
387830 630453 509
150670 744594 509
266638 532380 470
567168 588327 434
318308 758579 509
538091 577011 452
539412 980014 525
47832 825081 509
99751 642443 509
148471 316668 443
123592 745477 509
355066 954597 525
534309 616168 452
1842 435138 449
479419 707259 509
21567 582173 470
51773 908879 525
531735 858895 525
482036 507199 426
29787 132476 354
108436 936222 525
120125 926754 525
84094 231767 443
226112 981504 525
141779 880431 525
752977 802010 468
460579 976806 525
714591 835189 468
45357 47501 314
401931 415033 449
504279 525965 470
431252 542151 470
466119 584890 470
152023 197909 383
30503 635267 509
836095 860507 525
213391 716151 509
66143 735375 509
133538 528461 470
1110 632808 509
16469 636048 509
157179 967783 525
257896 374474 441
48653 457319 449
575109 680132 509
708211 958227 525
485643 597473 470
9465 776586 509
